VCD files/and_test.vcd
$date
	Thu Feb  3 01:56:45 2022
$end
$version
	Icarus Verilog
$end
$timescale
	1s
$end
$scope module AND_test $end
$var wire 64 ! out [63:0] $end
$var reg 76 " i [75:0] $end
$var reg 64 # input1 [63:0] $end
$var reg 64 $ input2 [63:0] $end
$scope module UUT $end
$var wire 64 % input1 [63:0] $end
$var wire 64 & input2 [63:0] $end
$var wire 64 ' out [63:0] $end
$scope begin generate_AND[0] $end
$upscope $end
$scope begin generate_AND[1] $end
$upscope $end
$scope begin generate_AND[2] $end
$upscope $end
$scope begin generate_AND[3] $end
$upscope $end
$scope begin generate_AND[4] $end
$upscope $end
$scope begin generate_AND[5] $end
$upscope $end
$scope begin generate_AND[6] $end
$upscope $end
$scope begin generate_AND[7] $end
$upscope $end
$scope begin generate_AND[8] $end
$upscope $end
$scope begin generate_AND[9] $end
$upscope $end
$scope begin generate_AND[10] $end
$upscope $end
$scope begin generate_AND[11] $end
$upscope $end
$scope begin generate_AND[12] $end
$upscope $end
$scope begin generate_AND[13] $end
$upscope $end
$scope begin generate_AND[14] $end
$upscope $end
$scope begin generate_AND[15] $end
$upscope $end
$scope begin generate_AND[16] $end
$upscope $end
$scope begin generate_AND[17] $end
$upscope $end
$scope begin generate_AND[18] $end
$upscope $end
$scope begin generate_AND[19] $end
$upscope $end
$scope begin generate_AND[20] $end
$upscope $end
$scope begin generate_AND[21] $end
$upscope $end
$scope begin generate_AND[22] $end
$upscope $end
$scope begin generate_AND[23] $end
$upscope $end
$scope begin generate_AND[24] $end
$upscope $end
$scope begin generate_AND[25] $end
$upscope $end
$scope begin generate_AND[26] $end
$upscope $end
$scope begin generate_AND[27] $end
$upscope $end
$scope begin generate_AND[28] $end
$upscope $end
$scope begin generate_AND[29] $end
$upscope $end
$scope begin generate_AND[30] $end
$upscope $end
$scope begin generate_AND[31] $end
$upscope $end
$scope begin generate_AND[32] $end
$upscope $end
$scope begin generate_AND[33] $end
$upscope $end
$scope begin generate_AND[34] $end
$upscope $end
$scope begin generate_AND[35] $end
$upscope $end
$scope begin generate_AND[36] $end
$upscope $end
$scope begin generate_AND[37] $end
$upscope $end
$scope begin generate_AND[38] $end
$upscope $end
$scope begin generate_AND[39] $end
$upscope $end
$scope begin generate_AND[40] $end
$upscope $end
$scope begin generate_AND[41] $end
$upscope $end
$scope begin generate_AND[42] $end
$upscope $end
$scope begin generate_AND[43] $end
$upscope $end
$scope begin generate_AND[44] $end
$upscope $end
$scope begin generate_AND[45] $end
$upscope $end
$scope begin generate_AND[46] $end
$upscope $end
$scope begin generate_AND[47] $end
$upscope $end
$scope begin generate_AND[48] $end
$upscope $end
$scope begin generate_AND[49] $end
$upscope $end
$scope begin generate_AND[50] $end
$upscope $end
$scope begin generate_AND[51] $end
$upscope $end
$scope begin generate_AND[52] $end
$upscope $end
$scope begin generate_AND[53] $end
$upscope $end
$scope begin generate_AND[54] $end
$upscope $end
$scope begin generate_AND[55] $end
$upscope $end
$scope begin generate_AND[56] $end
$upscope $end
$scope begin generate_AND[57] $end
$upscope $end
$scope begin generate_AND[58] $end
$upscope $end
$scope begin generate_AND[59] $end
$upscope $end
$scope begin generate_AND[60] $end
$upscope $end
$scope begin generate_AND[61] $end
$upscope $end
$scope begin generate_AND[62] $end
$upscope $end
$scope begin generate_AND[63] $end
$upscope $end
$upscope $end
$upscope $end
$enddefinitions $end
#0
$dumpvars
b0 '
b0 &
b0 %
b0 $
b0 #
b0 "
b0 !
$end
#5
b1000000 !
b1000000 '
b11110100 $
b11110100 &
b11110100001001000000 #
b11110100001001000000 %
b11110100001001000000 "
#10
b10000000 !
b10000000 '
b111101000 $
b111101000 &
b111101000010010000000 #
b111101000010010000000 %
b111101000010010000000 "
#15
b1011000000 !
b1011000000 '
b1011011100 $
b1011011100 &
b1011011100011011000000 #
b1011011100011011000000 %
b1011011100011011000000 "
#20
b100000000 !
b100000000 '
b1111010000 $
b1111010000 &
b1111010000100100000000 #
b1111010000100100000000 %
b1111010000100100000000 "
#25
b1000000 !
b1000000 '
b10011000100 $
b10011000100 &
b10011000100101101000000 #
b10011000100101101000000 %
b10011000100101101000000 "
#30
b10110000000 !
b10110000000 '
b10110111000 $
b10110111000 &
b10110111000110110000000 #
b10110111000110110000000 %
b10110111000110110000000 "
#35
b11010000000 !
b11010000000 '
b11010101100 $
b11010101100 &
b11010101100111111000000 #
b11010101100111111000000 %
b11010101100111111000000 "
#40
b1000000000 !
b1000000000 '
b11110100001 $
b11110100001 &
b11110100001001000000000 #
b11110100001001000000000 %
b11110100001001000000000 "
#45
b0 !
b0 '
b100010010101 $
b100010010101 &
b100010010101010001000000 #
b100010010101010001000000 %
b100010010101010001000000 "
#50
b10000000 !
b10000000 '
b100110001001 $
b100110001001 &
b100110001001011010000000 #
b100110001001011010000000 %
b100110001001011010000000 "
#55
b100001000000 !
b100001000000 '
b101001111101 $
b101001111101 &
b101001111101100011000000 #
b101001111101100011000000 %
b101001111101100011000000 "
#60
b101100000000 !
b101100000000 '
b101101110001 $
b101101110001 &
b101101110001101100000000 #
b101101110001101100000000 %
b101101110001101100000000 "
#65
b110001000000 !
b110001000000 '
b110001100101 $
b110001100101 &
b110001100101110101000000 #
b110001100101110101000000 %
b110001100101110101000000 "
#70
b110100000000 !
b110100000000 '
b110101011001 $
b110101011001 &
b110101011001111110000000 #
b110101011001111110000000 %
b110101011001111110000000 "
#75
b1000000 !
b1000000 '
b111001001110 $
b111001001110 &
b111001001110000111000000 #
b111001001110000111000000 %
b111001001110000111000000 "
#80
b10000000000 !
b10000000000 '
b111101000010 $
b111101000010 &
b111101000010010000000000 #
b111101000010010000000000 %
b111101000010010000000000 "
#85
b0 !
b0 '
b1000000110110 $
b1000000110110 &
b1000000110110011001000000 #
b1000000110110011001000000 %
b1000000110110011001000000 "
#90
b1000100101010 $
b1000100101010 &
b1000100101010100010000000 #
b1000100101010100010000000 %
b1000100101010100010000000 "
#95
b1000000000 !
b1000000000 '
b1001000011110 $
b1001000011110 &
b1001000011110101011000000 #
b1001000011110101011000000 %
b1001000011110101011000000 "
#100
b100000000 !
b100000000 '
b1001100010010 $
b1001100010010 &
b1001100010010110100000000 #
b1001100010010110100000000 %
b1001100010010110100000000 "
#105
b10000000000 !
b10000000000 '
b1010000000110 $
b1010000000110 &
b1010000000110111101000000 #
b1010000000110111101000000 %
b1010000000110111101000000 "
#110
b1000010000000 !
b1000010000000 '
b1010011111011 $
b1010011111011 &
b1010011111011000110000000 #
b1010011111011000110000000 %
b1010011111011000110000000 "
#115
b1000111000000 !
b1000111000000 '
b1010111101111 $
b1010111101111 &
b1010111101111001111000000 #
b1010111101111001111000000 %
b1010111101111001111000000 "
#120
b1011000000000 !
b1011000000000 '
b1011011100011 $
b1011011100011 &
b1011011100011011000000000 #
b1011011100011011000000000 %
b1011011100011011000000000 "
#125
b1000001000000 !
b1000001000000 '
b1011111010111 $
b1011111010111 &
b1011111010111100001000000 #
b1011111010111100001000000 %
b1011111010111100001000000 "
#130
b1100010000000 !
b1100010000000 '
b1100011001011 $
b1100011001011 &
b1100011001011101010000000 #
b1100011001011101010000000 %
b1100011001011101010000000 "
#135
b1100110111111 $
b1100110111111 &
b1100110111111110011000000 #
b1100110111111110011000000 %
b1100110111111110011000000 "
#140
b1101000000000 !
b1101000000000 '
b1101010110011 $
b1101010110011 &
b1101010110011111100000000 #
b1101010110011111100000000 %
b1101010110011111100000000 "
#145
b100000000 !
b100000000 '
b1101110101000 $
b1101110101000 &
b1101110101000000101000000 #
b1101110101000000101000000 %
b1101110101000000101000000 "
#150
b10000000 !
b10000000 '
b1110010011100 $
b1110010011100 &
b1110010011100001110000000 #
b1110010011100001110000000 %
b1110010011100001110000000 "
#155
b10110000000 !
b10110000000 '
b1110110010000 $
b1110110010000 &
b1110110010000010111000000 #
b1110110010000010111000000 %
b1110110010000010111000000 "
#160
b100000000000 !
b100000000000 '
b1111010000100 $
b1111010000100 &
b1111010000100100000000000 #
b1111010000100100000000000 %
b1111010000100100000000000 "
#165
b101001000000 !
b101001000000 '
b1111101111000 $
b1111101111000 &
b1111101111000101001000000 #
b1111101111000101001000000 %
b1111101111000101001000000 "
#170
b0 !
b0 '
b10000001101100 $
b10000001101100 &
b10000001101100110010000000 #
b10000001101100110010000000 %
b10000001101100110010000000 "
#175
b1000000 !
b1000000 '
b10000101100000 $
b10000101100000 &
b10000101100000111011000000 #
b10000101100000111011000000 %
b10000101100000111011000000 "
#180
b0 !
b0 '
b10001001010101 $
b10001001010101 &
b10001001010101000100000000 #
b10001001010101000100000000 %
b10001001010101000100000000 "
#185
b1101000000 !
b1101000000 '
b10001101001001 $
b10001101001001 &
b10001101001001001101000000 #
b10001101001001001101000000 %
b10001101001001001101000000 "
#190
b10000000000 !
b10000000000 '
b10010000111101 $
b10010000111101 &
b10010000111101010110000000 #
b10010000111101010110000000 %
b10010000111101010110000000 "
#195
b10100000000 !
b10100000000 '
b10010100110001 $
b10010100110001 &
b10010100110001011111000000 #
b10010100110001011111000000 %
b10010100110001011111000000 "
#200
b1000000000 !
b1000000000 '
b10011000100101 $
b10011000100101 &
b10011000100101101000000000 #
b10011000100101101000000000 %
b10011000100101101000000000 "
#205
b10000000000 !
b10000000000 '
b10011100011001 $
b10011100011001 &
b10011100011001110001000000 #
b10011100011001110001000000 %
b10011100011001110001000000 "
#210
b100000000000 !
b100000000000 '
b10100000001101 $
b10100000001101 &
b10100000001101111010000000 #
b10100000001101111010000000 %
b10100000001101111010000000 "
#215
b10000000000000 !
b10000000000000 '
b10100100000010 $
b10100100000010 &
b10100100000010000011000000 #
b10100100000010000011000000 %
b10100100000010000011000000 "
#220
b10000100000000 !
b10000100000000 '
b10100111110110 $
b10100111110110 &
b10100111110110001100000000 #
b10100111110110001100000000 %
b10100111110110001100000000 "
#225
b10000001000000 !
b10000001000000 '
b10101011101010 $
b10101011101010 &
b10101011101010010101000000 #
b10101011101010010101000000 %
b10101011101010010101000000 "
#230
b10001110000000 !
b10001110000000 '
b10101111011110 $
b10101111011110 &
b10101111011110011110000000 #
b10101111011110011110000000 %
b10101111011110011110000000 "
#235
b10100011000000 !
b10100011000000 '
b10110011010010 $
b10110011010010 &
b10110011010010100111000000 #
b10110011010010100111000000 %
b10110011010010100111000000 "
#240
b10110000000000 !
b10110000000000 '
b10110111000110 $
b10110111000110 &
b10110111000110110000000000 #
b10110111000110110000000000 %
b10110111000110110000000000 "
#245
b10111000000000 !
b10111000000000 '
b10111010111010 $
b10111010111010 &
b10111010111010111001000000 #
b10111010111010111001000000 %
b10111010111010111001000000 "
#250
b10000010000000 !
b10000010000000 '
b10111110101111 $
b10111110101111 &
b10111110101111000010000000 #
b10111110101111000010000000 %
b10111110101111000010000000 "
#255
b11000010000000 !
b11000010000000 '
b11000010100011 $
b11000010100011 &
b11000010100011001011000000 #
b11000010100011001011000000 %
b11000010100011001011000000 "
#260
b11000100000000 !
b11000100000000 '
b11000110010111 $
b11000110010111 &
b11000110010111010100000000 #
b11000110010111010100000000 %
b11000110010111010100000000 "
#265
b11001000000000 !
b11001000000000 '
b11001010001011 $
b11001010001011 &
b11001010001011011101000000 #
b11001010001011011101000000 %
b11001010001011011101000000 "
#270
b11000100000000 !
b11000100000000 '
b11001101111111 $
b11001101111111 &
b11001101111111100110000000 #
b11001101111111100110000000 %
b11001101111111100110000000 "
#275
b11000001000000 !
b11000001000000 '
b11010001110011 $
b11010001110011 &
b11010001110011101111000000 #
b11010001110011101111000000 %
b11010001110011101111000000 "
#280
b11010000000000 !
b11010000000000 '
b11010101100111 $
b11010101100111 &
b11010101100111111000000000 #
b11010101100111111000000000 %
b11010101100111111000000000 "
#285
b1000000 !
b1000000 '
b11011001011100 $
b11011001011100 &
b11011001011100000001000000 #
b11011001011100000001000000 %
b11011001011100000001000000 "
#290
b1000000000 !
b1000000000 '
b11011101010000 $
b11011101010000 &
b11011101010000001010000000 #
b11011101010000001010000000 %
b11011101010000001010000000 "
#295
b1000000 !
b1000000 '
b11100001000100 $
b11100001000100 &
b11100001000100010011000000 #
b11100001000100010011000000 %
b11100001000100010011000000 "
#300
b100000000 !
b100000000 '
b11100100111000 $
b11100100111000 &
b11100100111000011100000000 #
b11100100111000011100000000 %
b11100100111000011100000000 "
#305
b100000000000 !
b100000000000 '
b11101000101100 $
b11101000101100 &
b11101000101100100101000000 #
b11101000101100100101000000 %
b11101000101100100101000000 "
#310
b101100000000 !
b101100000000 '
b11101100100000 $
b11101100100000 &
b11101100100000101110000000 #
b11101100100000101110000000 %
b11101100100000101110000000 "
#315
b110000000000 !
b110000000000 '
b11110000010100 $
b11110000010100 &
b11110000010100110111000000 #
b11110000010100110111000000 %
b11110000010100110111000000 "
#320
b1000000000000 !
b1000000000000 '
b11110100001001 $
b11110100001001 &
b11110100001001000000000000 #
b11110100001001000000000000 %
b11110100001001000000000000 "
#325
b1000001000000 !
b1000001000000 '
b11110111111101 $
b11110111111101 &
b11110111111101001001000000 #
b11110111111101001001000000 %
b11110111111101001001000000 "
#330
b1010010000000 !
b1010010000000 '
b11111011110001 $
b11111011110001 &
b11111011110001010010000000 #
b11111011110001010010000000 %
b11111011110001010010000000 "
#335
b1011011000000 !
b1011011000000 '
b11111111100101 $
b11111111100101 &
b11111111100101011011000000 #
b11111111100101011011000000 %
b11111111100101011011000000 "
#340
b0 !
b0 '
b100000011011001 $
b100000011011001 &
b100000011011001100100000000 #
b100000011011001100100000000 %
b100000011011001100100000000 "
#345
b100000101000000 !
b100000101000000 '
b100000111001101 $
b100000111001101 &
b100000111001101101101000000 #
b100000111001101101101000000 %
b100000111001101101101000000 "
#350
b10000000 !
b10000000 '
b100001011000001 $
b100001011000001 &
b100001011000001110110000000 #
b100001011000001110110000000 %
b100001011000001110110000000 "
#355
b100001110000000 !
b100001110000000 '
b100001110110101 $
b100001110110101 &
b100001110110101111111000000 #
b100001110110101111111000000 %
b100001110110101111111000000 "
#360
b0 !
b0 '
b100010010101010 $
b100010010101010 &
b100010010101010001000000000 #
b100010010101010001000000000 %
b100010010101010001000000000 "
#365
b100010000000000 !
b100010000000000 '
b100010110011110 $
b100010110011110 &
b100010110011110010001000000 #
b100010110011110010001000000 %
b100010110011110010001000000 "
#370
b11010000000 !
b11010000000 '
b100011010010010 $
b100011010010010 &
b100011010010010011010000000 #
b100011010010010011010000000 %
b100011010010010011010000000 "
#375
b100000010000000 !
b100000010000000 '
b100011110000110 $
b100011110000110 &
b100011110000110100011000000 #
b100011110000110100011000000 %
b100011110000110100011000000 "
#380
b100000000000 !
b100000000000 '
b100100001111010 $
b100100001111010 &
b100100001111010101100000000 #
b100100001111010101100000000 %
b100100001111010101100000000 "
#385
b100100101000000 !
b100100101000000 '
b100100101101110 $
b100100101101110 &
b100100101101110110101000000 #
b100100101101110110101000000 %
b100100101101110110101000000 "
#390
b101000000000 !
b101000000000 '
b100101001100010 $
b100101001100010 &
b100101001100010111110000000 #
b100101001100010111110000000 %
b100101001100010111110000000 "
#395
b100000101000000 !
b100000101000000 '
b100101101010111 $
b100101101010111 &
b100101101010111000111000000 #
b100101101010111000111000000 %
b100101101010111000111000000 "
#400
b10000000000 !
b10000000000 '
b100110001001011 $
b100110001001011 &
b100110001001011010000000000 #
b100110001001011010000000000 %
b100110001001011010000000000 "
#405
b100010000000000 !
b100010000000000 '
b100110100111111 $
b100110100111111 &
b100110100111111011001000000 #
b100110100111111011001000000 %
b100110100111111011001000000 "
#410
b100000000000 !
b100000000000 '
b100111000110011 $
b100111000110011 &
b100111000110011100010000000 #
b100111000110011100010000000 %
b100111000110011100010000000 "
#415
b100101000000000 !
b100101000000000 '
b100111100100111 $
b100111100100111 &
b100111100100111101011000000 #
b100111100100111101011000000 %
b100111100100111101011000000 "
#420
b1000000000000 !
b1000000000000 '
b101000000011011 $
b101000000011011 &
b101000000011011110100000000 #
b101000000011011110100000000 %
b101000000011011110100000000 "
#425
b101000100000000 !
b101000100000000 '
b101000100001111 $
b101000100001111 &
b101000100001111111101000000 #
b101000100001111111101000000 %
b101000100001111111101000000 "
#430
b100000000000000 !
b100000000000000 '
b101001000000100 $
b101001000000100 &
b101001000000100000110000000 #
b101001000000100000110000000 %
b101001000000100000110000000 "
#435
b1011000000 !
b1011000000 '
b101001011111000 $
b101001011111000 &
b101001011111000001111000000 #
b101001011111000001111000000 %
b101001011111000001111000000 "
#440
b100001000000000 !
b100001000000000 '
b101001111101100 $
b101001111101100 &
b101001111101100011000000000 #
b101001111101100011000000000 %
b101001111101100011000000000 "
#445
b1000000 !
b1000000 '
b101010011100000 $
b101010011100000 &
b101010011100000100001000000 #
b101010011100000100001000000 %
b101010011100000100001000000 "
#450
b100000010000000 !
b100000010000000 '
b101010111010100 $
b101010111010100 &
b101010111010100101010000000 #
b101010111010100101010000000 %
b101010111010100101010000000 "
#455
b10011000000 !
b10011000000 '
b101011011001000 $
b101011011001000 &
b101011011001000110011000000 #
b101011011001000110011000000 %
b101011011001000110011000000 "
#460
b100011100000000 !
b100011100000000 '
b101011110111100 $
b101011110111100 &
b101011110111100111100000000 #
b101011110111100111100000000 %
b101011110111100111100000000 "
#465
b1000000000000 !
b1000000000000 '
b101100010110001 $
b101100010110001 &
b101100010110001000101000000 #
b101100010110001000101000000 %
b101100010110001000101000000 "
#470
b101000110000000 !
b101000110000000 '
b101100110100101 $
b101100110100101 &
b101100110100101001110000000 #
b101100110100101001110000000 %
b101100110100101001110000000 "
#475
b1000010000000 !
b1000010000000 '
b101101010011001 $
b101101010011001 &
b101101010011001010111000000 #
b101101010011001010111000000 %
b101101010011001010111000000 "
#480
b101100000000000 !
b101100000000000 '
b101101110001101 $
b101101110001101 &
b101101110001101100000000000 #
b101101110001101100000000000 %
b101101110001101100000000000 "
#485
b1100000000000 !
b1100000000000 '
b101110010000001 $
b101110010000001 &
b101110010000001101001000000 #
b101110010000001101001000000 %
b101110010000001101001000000 "
#490
b101110000000000 !
b101110000000000 '
b101110101110101 $
b101110101110101 &
b101110101110101110010000000 #
b101110101110101110010000000 %
b101110101110101110010000000 "
#495
b1111001000000 !
b1111001000000 '
b101111001101001 $
b101111001101001 &
b101111001101001111011000000 #
b101111001101001111011000000 %
b101111001101001111011000000 "
#500
b100000100000000 !
b100000100000000 '
b101111101011110 $
b101111101011110 &
b101111101011110000100000000 #
b101111101011110000100000000 %
b101111101011110000100000000 "
#505
b10000001000000 !
b10000001000000 '
b110000001010010 $
b110000001010010 &
b110000001010010001101000000 #
b110000001010010001101000000 %
b110000001010010001101000000 "
#510
b110000100000000 !
b110000100000000 '
b110000101000110 $
b110000101000110 &
b110000101000110010110000000 #
b110000101000110010110000000 %
b110000101000110010110000000 "
#515
b10001000000000 !
b10001000000000 '
b110001000111010 $
b110001000111010 &
b110001000111010011111000000 #
b110001000111010011111000000 %
b110001000111010011111000000 "
#520
b110001000000000 !
b110001000000000 '
b110001100101110 $
b110001100101110 &
b110001100101110101000000000 #
b110001100101110101000000000 %
b110001100101110101000000000 "
#525
b10010000000000 !
b10010000000000 '
b110010000100010 $
b110010000100010 &
b110010000100010110001000000 #
b110010000100010110001000000 %
b110010000100010110001000000 "
#530
b110010000000000 !
b110010000000000 '
b110010100010110 $
b110010100010110 &
b110010100010110111010000000 #
b110010100010110111010000000 %
b110010100010110111010000000 "
#535
b10000000000000 !
b10000000000000 '
b110011000001011 $
b110011000001011 &
b110011000001011000011000000 #
b110011000001011000011000000 %
b110011000001011000011000000 "
#540
b110001000000000 !
b110001000000000 '
b110011011111111 $
b110011011111111 &
b110011011111111001100000000 #
b110011011111111001100000000 %
b110011011111111001100000000 "
#545
b10010101000000 !
b10010101000000 '
b110011111110011 $
b110011111110011 &
b110011111110011010101000000 #
b110011111110011010101000000 %
b110011111110011010101000000 "
#550
b110000010000000 !
b110000010000000 '
b110100011100111 $
b110100011100111 &
b110100011100111011110000000 #
b110100011100111011110000000 %
b110100011100111011110000000 "
#555
b10100111000000 !
b10100111000000 '
b110100111011011 $
b110100111011011 &
b110100111011011100111000000 #
b110100111011011100111000000 %
b110100111011011100111000000 "
#560
b110100000000000 !
b110100000000000 '
b110101011001111 $
b110101011001111 &
b110101011001111110000000000 #
b110101011001111110000000000 %
b110101011001111110000000000 "
#565
b10101001000000 !
b10101001000000 '
b110101111000011 $
b110101111000011 &
b110101111000011111001000000 #
b110101111000011111001000000 %
b110101111000011111001000000 "
#570
b10000000 !
b10000000 '
b110110010111000 $
b110110010111000 &
b110110010111000000010000000 #
b110110010111000000010000000 %
b110110010111000000010000000 "
#575
b100000010000000 !
b100000010000000 '
b110110110101100 $
b110110110101100 &
b110110110101100001011000000 #
b110110110101100001011000000 %
b110110110101100001011000000 "
#580
b10000000000 !
b10000000000 '
b110111010100000 $
b110111010100000 &
b110111010100000010100000000 #
b110111010100000010100000000 %
b110111010100000010100000000 "
#585
b100011100000000 !
b100011100000000 '
b110111110010100 $
b110111110010100 &
b110111110010100011101000000 #
b110111110010100011101000000 %
b110111110010100011101000000 "
#590
b10000000 !
b10000000 '
b111000010001000 $
b111000010001000 &
b111000010001000100110000000 #
b111000010001000100110000000 %
b111000010001000100110000000 "
#595
b100000101000000 !
b100000101000000 '
b111000101111100 $
b111000101111100 &
b111000101111100101111000000 #
b111000101111100101111000000 %
b111000101111100101111000000 "
#600
b1000000000 !
b1000000000 '
b111001001110000 $
b111001001110000 &
b111001001110000111000000000 #
b111001001110000111000000000 %
b111001001110000111000000000 "
#605
b101000001000000 !
b101000001000000 '
b111001101100101 $
b111001101100101 &
b111001101100101000001000000 #
b111001101100101000001000000 %
b111001101100101000001000000 "
#610
b1000000000000 !
b1000000000000 '
b111010001011001 $
b111010001011001 &
b111010001011001001010000000 #
b111010001011001001010000000 %
b111010001011001001010000000 "
#615
b101010001000000 !
b101010001000000 '
b111010101001101 $
b111010101001101 &
b111010101001101010011000000 #
b111010101001101010011000000 %
b111010101001101010011000000 "
#620
b1011000000000 !
b1011000000000 '
b111011001000001 $
b111011001000001 &
b111011001000001011100000000 #
b111011001000001011100000000 %
b111011001000001011100000000 "
#625
b101000100000000 !
b101000100000000 '
b111011100110101 $
b111011100110101 &
b111011100110101100101000000 #
b111011100110101100101000000 %
b111011100110101100101000000 "
#630
b1100000000000 !
b1100000000000 '
b111100000101001 $
b111100000101001 &
b111100000101001101110000000 #
b111100000101001101110000000 %
b111100000101001101110000000 "
#635
b101100100000000 !
b101100100000000 '
b111100100011101 $
b111100100011101 &
b111100100011101110111000000 #
b111100100011101110111000000 %
b111100100011101110111000000 "
#640
b10000000000000 !
b10000000000000 '
b111101000010010 $
b111101000010010 &
b111101000010010000000000000 #
b111101000010010000000000000 %
b111101000010010000000000000 "
#645
b110001000000000 !
b110001000000000 '
b111101100000110 $
b111101100000110 &
b111101100000110001001000000 #
b111101100000110001001000000 %
b111101100000110001001000000 "
#650
b10000010000000 !
b10000010000000 '
b111101111111010 $
b111101111111010 &
b111101111111010010010000000 #
b111101111111010010010000000 %
b111101111111010010010000000 "
#655
b110010011000000 !
b110010011000000 '
b111110011101110 $
b111110011101110 &
b111110011101110011011000000 #
b111110011101110011011000000 %
b111110011101110011011000000 "
#660
b10100100000000 !
b10100100000000 '
b111110111100010 $
b111110111100010 &
b111110111100010100100000000 #
b111110111100010100100000000 %
b111110111100010100100000000 "
#665
b110101001000000 !
b110101001000000 '
b111111011010110 $
b111111011010110 &
b111111011010110101101000000 #
b111111011010110101101000000 %
b111111011010110101101000000 "
#670
b10110110000000 !
b10110110000000 '
b111111111001010 $
b111111111001010 &
b111111111001010110110000000 #
b111111111001010110110000000 %
b111111111001010110110000000 "
#675
b1000000010000000 !
b1000000010000000 '
b1000000010111110 $
b1000000010111110 &
b1000000010111110111111000000 #
b1000000010111110111111000000 %
b1000000010111110111111000000 "
#680
b0 !
b0 '
b1000000110110011 $
b1000000110110011 &
b1000000110110011001000000000 #
b1000000110110011001000000000 %
b1000000110110011001000000000 "
#685
b1000001010100111 $
b1000001010100111 &
b1000001010100111010001000000 #
b1000001010100111010001000000 %
b1000001010100111010001000000 "
#690
b1000001010000000 !
b1000001010000000 '
b1000001110011011 $
b1000001110011011 &
b1000001110011011011010000000 #
b1000001110011011011010000000 %
b1000001110011011011010000000 "
#695
b1000000010000000 !
b1000000010000000 '
b1000010010001111 $
b1000010010001111 &
b1000010010001111100011000000 #
b1000010010001111100011000000 %
b1000010010001111100011000000 "
#700
b100000000 !
b100000000 '
b1000010110000011 $
b1000010110000011 &
b1000010110000011101100000000 #
b1000010110000011101100000000 %
b1000010110000011101100000000 "
#705
b10001000000 !
b10001000000 '
b1000011001110111 $
b1000011001110111 &
b1000011001110111110101000000 #
b1000011001110111110101000000 %
b1000011001110111110101000000 "
#710
b1000011100000000 !
b1000011100000000 '
b1000011101101011 $
b1000011101101011 &
b1000011101101011111110000000 #
b1000011101101011111110000000 %
b1000011101101011111110000000 "
#715
b1000000 !
b1000000 '
b1000100001100000 $
b1000100001100000 &
b1000100001100000000111000000 #
b1000100001100000000111000000 %
b1000100001100000000111000000 "
#720
b0 !
b0 '
b1000100101010100 $
b1000100101010100 &
b1000100101010100010000000000 #
b1000100101010100010000000000 %
b1000100101010100010000000000 "
#725
b1000001001000000 !
b1000001001000000 '
b1000101001001000 $
b1000101001001000 &
b1000101001001000011001000000 #
b1000101001001000011001000000 %
b1000101001001000011001000000 "
#730
b1000100000000000 !
b1000100000000000 '
b1000101100111100 $
b1000101100111100 &
b1000101100111100100010000000 #
b1000101100111100100010000000 %
b1000101100111100100010000000 "
#735
b100000000000 !
b100000000000 '
b1000110000110000 $
b1000110000110000 &
b1000110000110000101011000000 #
b1000110000110000101011000000 %
b1000110000110000101011000000 "
#740
b110100000000 !
b110100000000 '
b1000110100100100 $
b1000110100100100 &
b1000110100100100110100000000 #
b1000110100100100110100000000 %
b1000110100100100110100000000 "
#745
b1000111000000000 !
b1000111000000000 '
b1000111000011000 $
b1000111000011000 &
b1000111000011000111101000000 #
b1000111000011000111101000000 %
b1000111000011000111101000000 "
#750
b1000000100000000 !
b1000000100000000 '
b1000111100001101 $
b1000111100001101 &
b1000111100001101000110000000 #
b1000111100001101000110000000 %
b1000111100001101000110000000 "
#755
b1000000000000 !
b1000000000000 '
b1001000000000001 $
b1001000000000001 &
b1001000000000001001111000000 #
b1001000000000001001111000000 %
b1001000000000001001111000000 "
#760
b1001000011110101 $
b1001000011110101 &
b1001000011110101011000000000 #
b1001000011110101011000000000 %
b1001000011110101011000000000 "
#765
b1001000001000000 !
b1001000001000000 '
b1001000111101001 $
b1001000111101001 &
b1001000111101001100001000000 #
b1001000111101001100001000000 %
b1001000111101001100001000000 "
#770
b1001001010000000 !
b1001001010000000 '
b1001001011011101 $
b1001001011011101 &
b1001001011011101101010000000 #
b1001001011011101101010000000 %
b1001001011011101101010000000 "
#775
b1000011000000 !
b1000011000000 '
b1001001111010001 $
b1001001111010001 &
b1001001111010001110011000000 #
b1001001111010001110011000000 %
b1001001111010001110011000000 "
#780
b1010000000000 !
b1010000000000 '
b1001010011000101 $
b1001010011000101 &
b1001010011000101111100000000 #
b1001010011000101111100000000 %
b1001010011000101111100000000 "
#785
b1000000100000000 !
b1000000100000000 '
b1001010110111010 $
b1001010110111010 &
b1001010110111010000101000000 #
b1001010110111010000101000000 %
b1001010110111010000101000000 "
#790
b1000001010000000 !
b1000001010000000 '
b1001011010101110 $
b1001011010101110 &
b1001011010101110001110000000 #
b1001011010101110001110000000 %
b1001011010101110001110000000 "
#795
b10110000000 !
b10110000000 '
b1001011110100010 $
b1001011110100010 &
b1001011110100010010111000000 #
b1001011110100010010111000000 %
b1001011110100010010111000000 "
#800
b100000000000 !
b100000000000 '
b1001100010010110 $
b1001100010010110 &
b1001100010010110100000000000 #
b1001100010010110100000000000 %
b1001100010010110100000000000 "
#805
b1000100000000000 !
b1000100000000000 '
b1001100110001010 $
b1001100110001010 &
b1001100110001010101001000000 #
b1001100110001010101001000000 %
b1001100110001010101001000000 "
#810
b1001101001111110 $
b1001101001111110 &
b1001101001111110110010000000 #
b1001101001111110110010000000 %
b1001101001111110110010000000 "
#815
b101001000000 !
b101001000000 '
b1001101101110010 $
b1001101101110010 &
b1001101101110010111011000000 #
b1001101101110010111011000000 %
b1001101101110010111011000000 "
#820
b1000000000000 !
b1000000000000 '
b1001110001100111 $
b1001110001100111 &
b1001110001100111000100000000 #
b1001110001100111000100000000 %
b1001110001100111000100000000 "
#825
b1001000101000000 !
b1001000101000000 '
b1001110101011011 $
b1001110101011011 &
b1001110101011011001101000000 #
b1001110101011011001101000000 %
b1001110101011011001101000000 "
#830
b1001010000000000 !
b1001010000000000 '
b1001111001001111 $
b1001111001001111 &
b1001111001001111010110000000 #
b1001111001001111010110000000 %
b1001111001001111010110000000 "
#835
b1011101000000 !
b1011101000000 '
b1001111101000011 $
b1001111101000011 &
b1001111101000011011111000000 #
b1001111101000011011111000000 %
b1001111101000011011111000000 "
#840
b10000000000000 !
b10000000000000 '
b1010000000110111 $
b1010000000110111 &
b1010000000110111101000000000 #
b1010000000110111101000000000 %
b1010000000110111101000000000 "
#845
b1010000000000000 !
b1010000000000000 '
b1010000100101011 $
b1010000100101011 &
b1010000100101011110001000000 #
b1010000100101011110001000000 %
b1010000100101011110001000000 "
#850
b1010001000000000 !
b1010001000000000 '
b1010001000011111 $
b1010001000011111 &
b1010001000011111111010000000 #
b1010001000011111111010000000 %
b1010001000011111111010000000 "
#855
b0 !
b0 '
b1010001100010100 $
b1010001100010100 &
b1010001100010100000011000000 #
b1010001100010100000011000000 %
b1010001100010100000011000000 "
#860
b1000000000000000 !
b1000000000000000 '
b1010010000001000 $
b1010010000001000 &
b1010010000001000001100000000 #
b1010010000001000001100000000 %
b1010010000001000001100000000 "
